394952 211519
214535 932623
557275 637998
454002 63221
488977 406918
584982 248423
493173 318886
249867 917145
157101 852152
146187 684022
427636 79296
94359 980170
751156 984609
583434 318285
737385 51626
858376 864791
45822 459006
413705 391188
171732 283584
846794 45797
597151 720770
960490 251125
244577 63072
284113 546032
516977 962149
336993 700471
148891 118015
597684 218441
743094 870640
697003 961270
612673 242939
619789 972317
854224 66595
343345 784326
435373 160649
681021 328157
214704 901650
444575 42829
834824 954397
75187 66688
682438 48345
274301 546176
866500 971612
151834 265132
544642 528071
765883 200354
84927 508250
803610 557478
46904 588609
9305 748600
726735 943345
998537 15223
561262 535399
851360 886505
134030 731026
854116 203809
380999 708953
133022 603169
441841 462822
266893 372575
454599 81161
45200 203488
486497 999772
162453 641178
624712 584721
934140 763769
44999 813252
490472 635212
191025 705498
401000 211306
809972 808520
390617 458921
914139 654808
689599 564486
894719 680623
554379 488255
304382 92894
207142 278972
861202 615420
716701 412837
703005 865431
770625 443910
144451 198906
910943 972129
772696 471105
343453 995695
213720 303712
348159 168570
433105 765437
505890 897852
222611 616699
943420 64782
59605 380478
867845 307740
45882 285566
543336 312939
384418 258211
458627 559277
937424 661190
752454 239783
478800 432669
840333 634808
427689 741705
281298 656482
766522 752444
481982 922268
150546 104308
722225 693561
7922 63793
946169 173924
972098 457090
579756 8842
214981 688656
307131 661732
433695 597486
79445 178216
490481 160207
430610 701618
566995 135335
622340 813686
473872 196974
263567 573353
885961 15868
789533 720009
319894 998843
596930 390316
648770 474059
176072 946507
103719 430687
467036 655647
952735 306080
121311 765412
825581 121480
891325 770202
216368 423410
297572 972856
820435 738175
448237 627688
951189 35622
352251 61642
732935 304248
548365 293831
957416 506199
162780 432173
910039 506792
554887 52984
440938 62020
577325 142170
243246 476719
362503 728952
79063 81167
460010 308248
543889 626722
644192 801516
83420 135960
214924 421950
798457 461348
117778 338540
313773 11087
892454 364673
274570 115348
401357 878806
350380 337303
561848 406243
753612 372215
496185 940845
620352 774826
790348 340990
954562 49623
603427 342048
321253 240678
425256 851599
674267 866945
213755 934099
451053 441461
807935 125509
363062 602995
607842 889816
817732 639914
919028 127468
15262 802138
844260 270211
445282 343915
239155 477496
220064 236552
826750 792982
228069 889901
718091 69947
59085 410667
514891 163716
338400 282472
878161 236155
487412 725016
124586 449855
427347 190759
550327 718557
857063 79641
346218 570224
641510 305083
866280 145434
71258 9309
536295 715803
514152 84506
25048 978134
597316 22876
506692 776548
426164 781895
439033 925306
411818 343620
974517 632812
363812 548301
815536 426689
801793 139988
168014 155853
