403896 743607 509
823637 105620 509
790818 536711 509
38635 552406 470
500202 110382 449
305920 478933 449
161707 936739 525
847429 730871 525
834772 941908 525
843288 900510 445
124061 546114 470
738227 584502 509
751229 274134 509
641035 390043 509
178413 400119 443
419372 977841 525
851281 157631 525
846556 71571 525
381260 664591 509
917432 36190 525
797451 957075 525
842438 514598 525
993273 573281 525
83644 647312 509
447481 500714 444
738836 411825 509
54392 187096 383
646409 150665 509
845792 958410 507
600037 311630 470
770485 947952 525
272787 890388 525
628595 530432 509
635236 137103 509
781436 457430 509
248247 18323 443
934313 715413 525
295604 32672 443
718528 240162 509
104935 499564 449
963348 703533 525
836470 221608 509
942086 316737 525
905138 425043 525
728928 423231 509
731260 664819 504
725993 62694 509
614206 603247 403
946391 753557 525
710312 492123 509
898452 918449 476
120089 879151 525
348026 171256 443
188904 297911 443
558367 672055 509
236616 196846 443
981480 521833 525
896106 176333 525
215633 6181 383
581940 664792 509
567261 344110 470
336326 186993 443
850272 855163 419
426593 708182 509
244832 211962 443
607600 806646 509
633072 140538 509
492502 500727 426
146710 78263 375
9681 308912 443
440544 380488 449
177367 754491 509
612374 135729 470
970949 973557 352
943859 598571 525
97334 153342 375
940730 634058 525
703408 787719 504
716556 472469 509
44935 763941 509
846186 956064 507
527842 791235 509
53814 350332 443
79701 523749 470
661673 849038 525
146079 836488 509
190024 480555 449
827877 161372 509
984089 420676 525
671842 174470 509
564812 69293 470
241106 753361 509
233182 255956 381
593715 817653 509
520550 247314 470
110924 31377 354
288068 296552 389
807833 143462 509
476046 621532 470
114791 149145 375
417343 588489 470
970642 793283 525
958541 815702 525
819478 298720 509
789328 762991 468
985474 401398 525
15885 223433 386
186326 793931 509
143996 760163 509
216045 359738 443
634923 832092 504
262020 550765 470
820004 74600 509
579607 611830 434
320150 521181 470
124280 123496 318
913858 572164 525
917641 547798 525
818011 681078 504
771292 245086 509
327400 780390 509
575877 261176 470
158020 205287 370
585777 786225 509
51737 279068 443
95863 352243 443
411710 873693 525
308283 904724 525
217592 358428 443
985098 681419 525
606234 121520 470
676926 550910 509
103158 762690 509
942055 118286 525
684917 105067 509
434813 107923 449
493785 506201 426
37268 250898 443
482881 42797 449
385406 321259 441
682437 207331 509
569424 241421 470
226436 634838 509
20497 233769 443
581879 860368 525
556762 777618 509
442986 465240 444
617877 529059 452
470112 943803 525
170760 157764 370
684437 257360 509
189157 525761 470
942153 85579 525
607671 583741 434
409455 944373 525
54452 983012 525
935329 977503 507
393547 955478 525
494111 495103 351
171706 653281 509
230883 494458 449
328534 873256 525
805807 34604 509
957592 744669 525
424340 992016 525
553642 973396 525
78532 125347 354
979011 151871 525
452081 782478 509
842271 342280 525
580773 966890 525
374097 915300 525
819001 183139 509
368761 311769 441
209020 167869 373
744130 659360 504
692138 625727 509
426609 272547 449
4209 473811 449
322696 210919 443
180906 839021 525
740129 546353 509
444746 21132 449
237085 414123 449
866160 92682 525
30659 788896 509
760626 147811 509
328086 312037 384
860215 763846 525
17394 352652 443
100132 398149 443
803002 301886 509
829658 323982 509
830406 505532 509
783414 713702 468
594458 167350 470
247820 766176 509
873471 718852 525
92599 590669 470
184032 531500 470
73499 471709 449
43620 330613 443
65731 11692 340
764237 549541 509
621894 42628 470
219989 966298 525
707167 217272 509
210076 675160 509
233878 416364 449
25851 664702 509
573449 266477 470
274106 635893 509
600818 383216 470
498198 650440 509
614237 483025 470
976463 715040 525
928597 94216 525
976984 445195 525
429717 648882 509
394045 886858 525
918049 631485 525
402672 714764 509
14056 865925 525
465256 11511 449
91234 297934 443
342532 817799 509
617846 41063 470
808870 963265 525
989513 243483 525
853856 259465 525
770102 285489 509
532367 964762 525
686405 548819 509
547241 403208 470
254720 139240 443
776525 730480 468
30127 490096 449
740754 741082 362
239820 543274 470
786857 708205 468
287009 265810 407
909111 185466 525
719159 198619 509
319936 16594 443
532792 496293 470
199642 666773 509
582549 662784 509
676527 686635 380
27749 591159 470
291166 964706 525
758275 702799 504
313187 511684 449
438062 625706 470
171312 298634 443
507152 520813 470
155223 865869 525
864461 945970 507
850814 407736 525
293194 761909 509
753367 586433 509
129710 229845 386
234127 765976 509
58279 598106 470
187809 60991 383
241305 538150 470
466175 108444 449
470478 652757 509
258519 732250 509
126284 899021 525
1487 700000 509
757782 530995 509
242702 794430 509
301902 424379 449
183394 29335 383
370451 743735 509
466846 621233 470
150935 697441 509
