785948 226239 509
878103 755815 525
617029 404059 470
87646 125695 354
826929 899188 525
11505 13054 263
318884 303494 384
395745 467393 449
592168 339443 470
18306 11485 279
450418 213167 449
607793 373221 470
545952 543167 359
885042 934099 476
221700 588990 470
959612 681340 525
58991 113295 354
124960 835380 509
196627 844133 525
632429 799559 504
735199 396352 509
784109 797009 468
186828 762725 509
620415 797550 509
390826 844671 525
847572 545293 525
749778 488696 509
752118 467317 509
709029 707383 349
759991 183417 509
445645 532514 470
582175 989068 525
909269 200716 525
130024 841961 525
175066 403156 443
171365 863759 525
424166 866943 525
234905 185601 443
210267 859094 525
291507 278064 389
429966 604865 470
283512 350145 441
271295 310083 389
513343 190912 470
170690 18324 383
870452 116841 525
669571 642488 442
571977 15974 470
277791 968124 525
74347 919106 525
859775 158967 525
333544 148607 443
786001 705374 468
995419 287378 525
58474 158545 383
585615 670665 509
427692 567806 470
20127 326846 443
158219 767586 509
207018 412206 449
806150 442773 509
78053 506362 449
530242 432664 470
453191 636970 509
590996 396654 470
855011 37952 525
953744 982484 458
183203 985652 525
10783 647400 509
600132 115113 470
633564 695854 442
749486 779985 468
380750 12333 443
97201 304291 443
278548 960285 525
80868 614294 470
533590 6354 470
25734 371257 443
553225 107102 470
242428 94320 443
294677 791216 509
331033 432176 449
7723 251366 443
704318 17516 509
314500 378345 441
60629 63165 335
448587 623145 470
301431 335615 384
701987 800883 504
348850 569529 470
326629 322179 384
746797 634831 504
77941 51139 351
372732 451301 449
810360 664915 504
433703 331440 449
187226 157696 370
736627 169403 509
995146 202790 525
149968 402960 443
479217 500223 426
492529 5603 449
523576 589487 452
229716 836913 509
21156 607926 470
426886 441947 400
812068 968001 525
418354 260438 449
656965 570668 509
895641 765281 525
88796 78548 338
680641 306795 509
522280 117037 470
207077 560820 470
660089 694121 442
240318 721823 509
550681 579975 421
539480 875549 525
922329 277523 525
351803 679424 509
871809 936022 476
295761 583610 470
600285 82638 470
797975 608398 509
47454 147004 375
77754 257699 443
879916 30970 525
327584 97120 443
725259 174289 509
997738 456269 525
914306 232798 525
13225 691385 509
999211 619947 525
746569 271453 509
830360 239120 509
166332 753883 509
221277 974005 525
623953 600863 447
502363 760737 509
714981 395354 509
238587 81707 443
437847 340843 449
990384 593277 525
787024 40323 509
179100 216088 373
905071 729416 525
719017 566951 509
322688 996147 525
610262 50861 470
983892 433962 525
134510 641834 509
172760 9393 383
128858 676568 509
606774 977077 525
228591 926299 525
929929 560712 525
80151 32484 351
560628 760271 509
80506 105405 341
929463 509308 525
198481 2631 383
391338 152987 443
436635 480486 444
731443 51335 509
502863 780723 509
107023 533204 470
711882 540712 509
591389 804822 509
704194 207715 509
136025 705660 509
785092 926335 525
765970 337962 509
506865 68513 449
375120 95045 443
162743 168214 352
457842 40867 449
375325 51841 443
120875 312187 443
761333 396463 509
774186 145172 509
52815 211053 383
851564 732715 525
855187 795494 525
764367 114846 509
358997 254332 441
285520 444632 449
97951 7248 351
302729 513646 470
673722 681511 385
859932 458797 525
608882 775245 509
662775 13946 509
614546 985468 525
943776 425242 525
175537 223267 386
261608 670785 509
43985 32302 324
544425 711535 509
724727 673610 504
259997 637334 509
773989 832803 468
968420 970326 352
163692 925397 525
920667 227720 525
992021 724962 525
959470 835500 525
680918 830634 504
172047 434929 449
297405 489356 449
159769 563830 470
541053 904647 525
764162 351391 509
778650 214165 509
72209 627233 509
317263 702254 509
959535 175460 525
165584 526012 470
616584 867818 525
968783 119536 525
883032 260024 525
100346 784457 509
345246 608971 470
575339 398841 470
467581 900573 525
699515 174797 509
362126 932003 525
844156 606734 525
865114 281842 525
447734 339662 449
387522 564869 470
81345 307807 443
897363 155723 525
481027 830900 509
192140 117028 383
165899 974328 525
332508 26786 443
616913 827373 509
801081 414936 509
533541 445388 470
278790 493966 449
134617 282721 443
487045 198701 449
817427 825797 450
764369 276286 509
875640 173956 525
493095 334909 449
141410 947124 525
570686 523848 452
997604 137641 525
741647 491735 509
516101 935250 525
449426 756034 509
232385 803098 509
576468 362354 470
893620 471794 525
391446 997505 525
