161126 398044
949630 489643
635667 417562
608496 745168
106860 765129
763339 155839
817525 275527
463139 59841
556128 590979
403908 794188
621257 595512
454994 935535
53740 187720
881538 56700
52805 561448
971205 849165
307358 115614
579717 186778
459053 264910
744117 340377
270514 8594
366583 881318
424671 445258
470927 723238
537060 571389
764331 860867
87835 585645
38379 701992
784932 315473
473379 353236
65124 473294
698776 110959
401485 171553
359846 529191
119327 573344
726203 642335
572725 210826
255178 409339
44101 658553
282186 753951
505362 687855
688874 518187
310871 11913
659690 911688
616825 474371
79024 467417
155208 999063
467592 1608
160838 734009
534721 775372
919991 971891
184605 645211
463482 908726
999163 908297
295048 278461
180702 418086
848604 747277
284961 1940
788182 999592
795966 610468
32272 733295
289895 70745
218233 596329
585746 941432
848055 726042
156388 775581
502171 291570
134763 355105
663117 880156
844581 145943
381119 2845
577185 964843
819742 474857
400249 716950
301547 671154
326603 44666
80140 924680
708606 334321
519941 958753
858701 430358
917401 651328
229222 477705
235719 761491
880505 596175
386239 193367
962806 879766
196786 897393
939716 527934
116320 715303
227872 681136
977822 102664
639529 495728
945348 603400
561062 364179
232366 601849
204120 541155
10834 542736
548324 472000
494148 808125
287580 374610
355217 859191
68911 591262
126894 500937
728782 717525
391186 503845
865532 596220
564176 372295
893250 369213
709275 93690
206401 949818
698579 482462
17389 833406
790156 349180
789375 371081
988516 641365
144691 950009
154798 392545
573154 420078
453926 150169
501526 919968
356612 7150
142816 890452
298374 360662
287243 508067
863341 641868
641218 309615
678213 796771
461682 433029
775768 679060
27356 653097
18124 248009
523583 805612
616894 557534
875524 220001
863252 330923
805107 618806
122346 957423
224997 683508
796130 98591
740185 290226
256168 377746
658567 390823
942428 524317
766587 591456
432414 178477
503062 619179
348942 136863
631945 327481
343845 425616
80769 13452
819126 778615
756252 81275
666876 844179
15220 9821
540048 260950
815623 544430
794877 990964
288537 70782
352526 700972
563110 495236
132924 470728
960985 894417
451135 521432
825824 697538
602502 718960
536902 642683
83105 71835
585929 761267
439006 684770
532028 779018
259688 294948
894805 531333
387009 920592
401563 110495
74222 69433
218014 708865
35158 374869
146826 32239
795786 259521
409876 576613
225599 294627
412135 650474
866868 581183
964878 59028
445913 47250
472635 294918
880062 539487
871236 158393
124402 266130
12628 201771
923720 721843
959840 893365
639431 896369
320004 926102
981079 718588
967292 687793
710964 330803
807193 970928
98817 709287
311599 84166
431874 779637
68686 613068
820097 337522
742595 451191
830080 575805
668456 674634
153511 496123
617998 53731
313539 775219
77980 325516
919302 259416
447781 169727
518275 930513
154055 419131
240716 910034
481943 69778
869128 426208
797203 282524
715700 285457
52438 169872
503430 521352
792771 374639
537562 864993
293790 880398
737025 609291
82374 562037
114588 722185
839663 995796
847918 171006
842189 632098
615074 84572
473287 449729
358266 695501
698632 85420
758577 625170
231809 624759
179869 904269
46700 708074
866337 651928
217951 257726
855760 835228
413381 550580
216095 944755
564294 607896
465489 690478
819369 543368
435681 111800
974045 905982
355392 37379
754283 451948
772006 609037
660862 429685
207970 142373
942403 558966
917434 152836
767316 136167
348001 178183
450075 818868
416671 477270
239065 914014
535728 194213
94466 413802
166886 571177
867052 114957
785560 684861
778973 125976
19677 590698
560691 420025
828346 584325
807249 544331
678390 312227
267166 989488
939049 917909
875574 978657
973640 143533
704240 914328
566652 621415
819506 328838
932121 239404
850209 597874
499553 46673
294311 228751
669187 521693
779070 805213
476977 14757
158504 667356
190860 87072
404916 467769
295796 516978
591779 988085
