132349 281903 443
674320 588660 509
537552 452524 470
586839 235457 470
248805 49907 443
913928 631526 525
710430 574904 509
811666 563005 509
867776 920673 476
392069 168671 443
208869 19425 383
515736 621389 452
208362 868566 525
353606 196247 443
639697 17434 509
429055 393803 449
711805 18697 509
697321 153388 509
265394 504720 449
139043 193677 383
491933 264259 449
152131 562728 470
687264 931464 525
638806 865920 525
912743 983164 507
374893 267842 441
674314 662150 442
321159 645975 509
332200 229693 443
533720 669258 509
996692 399506 525
721224 438196 509
90155 248940 443
144997 839377 525
911446 686563 525
570858 576091 372
715950 804235 468
278575 543965 470
860813 350920 525
328406 360844 441
782441 602019 509
880554 708850 525
577639 793246 509
908148 126434 525
228007 751338 509
436032 563657 470
502619 995675 525
872328 816730 525
477777 398713 449
72465 717552 509
745998 83695 509
904619 636707 525
778849 263553 509
675717 198804 509
388184 797949 509
650883 813721 504
646456 568494 509
301800 709051 509
130947 842577 525
49102 570142 470
651245 547481 509
19721 650099 509
850590 569817 525
678826 237620 509
14340 440027 449
142266 63610 354
443890 639428 509
265214 170950 443
735590 944409 525
247157 800733 509
458976 438122 400
850361 989285 507
905117 920211 476
969075 657473 525
373638 457037 449
38876 221281 386
630093 436442 509
850481 612457 525
929485 126127 525
480566 631288 509
827067 833887 419
858510 799046 525
174893 455261 449
574829 632397 509
639989 872296 525
238271 608379 470
583732 640988 509
111172 184116 383
336897 442424 449
793183 263670 509
914494 77498 525
357098 914937 525
624196 855328 525
320488 655175 509
29059 476432 449
694287 561443 509
12395 35364 311
943493 454147 525
359252 51660 443
541075 499860 470
832740 805603 450
658971 629417 429
385435 644828 509
93072 496111 449
980612 161328 525
254139 974809 525
227350 936297 525
582308 901852 525
224250 948375 525
131208 898651 525
268711 867371 525
997323 230949 525
133841 427467 449
491231 321690 449
799119 653126 504
497144 300370 449
143572 747435 509
951498 230088 525
967089 223168 525
500341 192490 449
264557 851183 525
457432 842528 525
257889 397409 441
486432 314230 449
490040 929296 525
200014 736033 509
57393 835962 509
169346 374910 443
523625 734359 509
620939 252939 470
132006 713990 509
305680 313014 384
368163 955233 525
526990 743177 509
649989 830094 504
27727 813128 509
223492 892963 525
15595 252313 443
778833 581668 509
535395 463268 470
571368 828224 509
391225 275627 441
754803 711376 424
830835 640189 504
837102 395540 509
132218 889547 525
917436 362903 525
603928 545017 452
889523 212927 525
633784 818246 504
314874 14775 443
632220 522606 509
594857 766879 509
238565 690481 509
632000 718422 504
11570 763386 509
715673 227328 509
786200 521137 509
995110 47842 525
773583 618872 509
499135 853192 525
94318 251727 443
96778 930149 525
796227 445085 509
681447 789324 504
535296 421051 470
241057 621572 470
399842 306261 441
291331 728823 509
490164 710863 509
814935 541926 509
543823 916318 525
946366 200243 525
186474 199175 360
823944 632094 504
665157 644338 429
104696 80490 341
743778 853287 525
705461 418548 509
863590 419752 525
858432 421400 525
770844 899462 525
400781 440119 449
22833 522013 470
756789 641204 504
342934 109605 443
657420 417614 509
238639 36526 443
530524 246596 470
766705 447850 509
787828 233697 509
623991 640975 509
264892 828261 509
194585 958999 525
157372 345292 443
671825 346982 509
723412 208369 509
875297 405264 525
486139 602363 470
6812 158767 383
940306 94342 525
354434 826021 509
346501 893845 525
326565 569475 470
714029 180805 509
125194 371875 443
830460 366607 509
501959 48096 449
833851 865107 525
490522 221273 449
505288 636057 509
259488 846531 525
548173 954334 525
418117 167642 449
424491 637347 509
450827 131070 449
595270 578653 434
621668 235983 470
703370 786130 504
801104 519319 509
484944 571524 470
306671 220180 443
601733 309614 470
952305 447093 525
66435 439303 449
204292 290707 443
966755 729386 525
398499 913653 525
457585 275487 449
7536 690726 509
674856 513209 509
665763 338899 509
300836 836900 509
650698 606955 509
390261 255372 441
491761 143138 449
834623 530293 509
424435 972426 525
301708 576577 470
633834 390057 509
907697 445505 525
