880464 723452
876174 156005
521286 135439
536932 268613
112293 984870
473606 830934
279346 926763
460188 461157
704914 328529
903619 743171
533379 681717
956406 990538
874886 64954
514785 70692
622602 165103
921942 444195
283566 230062
382805 972085
344530 156419
280197 125168
532082 6421
789890 209293
239860 523030
85107 294693
407348 648093
664954 166720
539464 942989
252568 717128
595720 907703
828331 961261
98080 649878
109042 764786
469552 995812
509520 799981
102376 234691
621042 56884
933877 615257
940711 609567
400432 756448
338604 973764
609437 684143
255594 675700
946195 325717
335061 814483
862298 353048
142772 781509
933050 230303
857224 363749
818607 75842
464346 339585
335391 25242
859127 354978
87973 972062
487971 603271
690876 127279
869365 607535
123386 796515
654668 613177
565681 269386
224960 562913
90272 62216
540936 692843
588114 558482
255815 704966
690364 243686
887941 596212
607813 186403
961425 948560
148314 327511
213321 7111
89460 651573
93826 965083
391696 4795
265801 115536
329961 144097
388878 500911
80825 777757
620063 840666
750759 822460
676642 553728
507496 106383
632034 23987
246854 352439
279639 338408
297122 689336
506415 537767
858432 934674
999681 12879
757964 214980
150146 828212
361683 398812
866805 159410
260823 852133
720603 128181
458254 359345
140718 123344
661750 107801
607378 503828
504499 690933
399042 672624
945476 128539
965834 126097
420050 553032
74777 436897
37383 130429
834215 586290
547334 876104
534625 461674
391737 668366
976883 246408
434047 650402
908747 998623
74430 871121
597214 973700
557491 353642
903012 738559
920077 683589
965443 689436
367119 760829
576695 235572
416358 42618
448503 330719
50271 647228
831250 184973
567283 264384
302731 172754
170275 122273
691500 800561
672280 48154
806974 638896
230909 717810
183953 448477
154181 502377
786773 156003
292762 773360
793489 705004
448468 982993
615100 51619
814621 735844
618829 734670
370491 342594
133014 449843
593440 514060
325106 275897
60174 913923
302489 698305
667172 628059
404244 595793
749654 754182
732707 597173
494384 116385
21911 165453
689040 153431
652693 378975
440761 76515
193746 722433
822830 735616
472853 537165
264620 98704
121241 767793
385793 964258
657216 350515
544155 564661
368202 627354
972018 826580
629798 184283
530627 341176
356947 420186
26571 306860
402469 434478
286216 242144
146661 102150
906368 70691
807473 192670
578600 786159
662182 543973
257200 829328
788948 841837
147463 908974
731121 273036
253659 685054
794891 763269
684888 981316
689929 225953
86297 461924
718611 934086
129247 228366
643770 208395
540025 305996
72083 361064
345202 787557
476237 742651
598092 701331
404656 488546
333584 614557
61562 534026
419954 928062
860721 555131
478915 602533
661233 61376
79380 511760
183447 709499
712768 189508
938567 960822
27780 875779
227960 951225
141616 401167
949878 719735
113429 92329
757543 35965
721068 22678
912319 708541
127973 886546
572817 568722
799839 201608
901565 221735
815554 671879
686274 148502
706392 902569
264786 951536
991836 829722
134239 893652
