824021 673235
665471 714215
491258 706904
397347 818740
326357 394974
895966 976913
841306 946492
43085 533337
37209 153185
346860 375396
662053 693477
690487 960172
569120 114759
730098 663597
606799 372025
723536 890526
30640 875663
86689 402953
847948 320811
674270 39162
335025 89811
906266 261981
914261 865190
204450 925902
26236 538946
889976 603262
342454 325135
494192 198882
284359 422021
929655 91741
982217 68311
451946 501365
176902 232905
458593 143239
784001 7286
735333 720878
121949 536142
266195 155470
61563 979302
460952 716428
447694 949389
503000 519940
698544 633720
725544 310280
250633 475204
500965 471994
108243 113331
461058 279563
275596 332035
416134 401076
480630 323710
893530 285316
640775 113612
485913 261599
373503 957671
998303 70816
941821 237780
901048 420610
585668 337522
705226 620612
281542 25591
863421 475095
564459 775078
593546 304260
653458 30789
314249 394834
529669 600758
369236 190223
415263 950970
763720 757092
277420 393529
813440 267365
523030 190349
959527 569635
198237 492334
244214 595029
429469 871109
690387 430487
235937 741292
977668 285789
318127 301785
442391 757716
66547 506051
575606 723249
269252 103164
171310 72747
959268 661023
511067 848764
842977 118610
278537 179980
206410 434833
322137 107510
64582 164327
199644 744851
120129 516861
164298 191154
663111 979991
474917 268270
40061 221619
683614 651558
645013 716270
688923 544691
611323 627125
511480 360088
646084 673676
76964 979859
966252 468925
4272 965997
997465 551150
930094 738272
124873 53456
334586 495085
301935 25044
395967 505682
127049 215840
127250 488735
440657 819557
657774 151870
455384 571050
366633 403474
905704 769359
95812 652022
162996 126740
698852 242508
322831 444241
338936 872335
758557 214811
97244 122205
563660 240036
285247 409914
901470 684111
580761 341620
864208 985155
489062 800882
72156 586646
15077 542860
150379 119534
522879 772375
43816 250658
789523 767883
665889 315241
928759 527507
687082 184089
3728 337004
229482 79209
377922 295102
801269 740180
734806 663460
76447 771359
124995 566231
761554 792231
561858 506929
630700 265615
220639 595422
758506 435332
383829 479443
719372 509444
67995 173377
130719 172524
587098 909502
34797 735715
487873 679639
86387 395750
877418 598495
281436 972198
327490 472289
6301 651465
331239 260871
245515 913635
134014 807004
12113 977374
857593 262484
667328 225819
453175 106314
941481 257638
352375 876416
792833 103210
936322 35951
952469 787609
353138 833494
663487 6647
961057 619359
572985 127175
781134 284809
361053 981795
153904 314227
201982 693129
285582 105887
122068 66158
626192 929215
712857 126381
653467 185215
334502 418643
106956 912669
602981 377140
122206 587528
523182 941843
318202 382418
702156 50276
843014 786748
489381 98406
907421 383759
325603 441540
482525 708311
320727 350606
803309 91177
150600 130838
817009 600806
65909 689617
822558 946236
616083 320014
867300 284962
881107 860229
131 495639
848394 811567
697381 593023
579983 554111
738536 636734
126047 481849
714332 497973
229843 50264
843594 446200
199139 764406
47518 492005
535955 982464
460863 397764
421021 63808
436190 335138
426108 709371
650325 51201
987897 592597
976584 169995
201661 998374
274664 955183
405516 907790
944435 655190
985128 878470
884287 953318
648251 407146
397004 896031
971677 312973
