702428 281142
759945 507721
800899 500682
172806 817189
358195 881226
930118 652521
334977 937050
195549 55602
796435 708534
351806 88135
831622 441705
106277 46252
152201 868932
959899 76870
659966 234302
248694 180959
293513 369347
718824 534980
118192 824558
853918 59943
144810 831544
757804 687955
195239 702071
601600 561984
63603 112084
844541 19165
205240 19444
52919 800195
979905 782919
981280 746208
530432 49425
705998 91485
795974 718067
629431 65926
213163 999040
954714 395323
44521 398214
855120 661762
891118 522088
506205 990364
314989 289804
248787 606389
447311 391285
717863 20634
648798 788987
537645 900052
295936 262879
783455 973371
830697 899690
755189 855951
287539 129489
170224 637565
618484 977505
234082 469216
338022 894759
538536 597814
459258 948740
229750 840253
200710 405181
233891 806889
192562 987648
915235 777380
175815 750001
377452 648355
760108 298332
240717 959837
861265 376888
970177 596472
216905 932875
283971 27111
691164 928214
904948 728978
168826 2254
340281 474343
722642 352478
547373 841906
265758 123892
243095 528296
193345 195248
130346 822135
408801 989502
455737 421196
47833 973005
630834 63444
250078 452851
388781 23916
112695 734134
474032 244996
258275 368955
841629 160148
563463 828168
142714 889266
70930 367701
412444 109997
705447 623432
426496 127907
974656 252449
116005 983251
546405 292571
471240 337974
210657 5069
96346 436258
681769 387391
383672 619269
239409 621412
406345 898664
824694 603835
15613 812438
52923 502849
260174 495982
691397 665563
408484 17584
972602 328074
419136 143263
474340 955406
632052 805999
611058 376270
481329 17927
632604 32088
774941 724374
382789 209101
724435 225944
198670 213684
408423 42349
965507 343031
83352 792169
578280 481674
304220 116266
604853 368110
311325 961806
515533 971335
392052 281168
614916 152764
113601 323355
19319 577369
5367 108273
119338 989424
6691 1292
399706 446902
97819 817673
493962 67942
688215 947981
392803 244054
663260 18123
872760 193472
268247 851638
680925 343855
201566 483921
770018 966301
961667 617417
262781 607874
736478 177774
827915 795119
32019 603987
376367 268563
390843 19868
665645 453196
78805 724473
925913 648053
725161 658786
3015 191230
259015 105307
131113 395022
904049 828114
454814 736734
656381 91758
587606 433627
868857 68453
995688 898751
922045 108800
981886 221074
724602 158631
715358 613756
322732 99260
867129 158477
753747 304897
281488 831568
186867 155374
115901 678277
109366 605278
522823 581476
518385 919298
723643 666662
366554 625214
932084 77320
315714 954564
845212 489727
502607 483283
399317 984497
611614 555711
148264 449387
266233 54421
62135 310663
300500 195985
454815 383085
414694 61608
306280 356058
697079 168038
897047 471
565502 142538
43176 729944
720134 968281
704176 387917
559130 698552
159814 577236
512162 847032
835716 674897
149190 240939
32536 237522
901261 958088
615325 542221
98632 725850
898460 150367
405490 864892
530296 226597
602345 625793
346524 209418
653519 801866
843111 73898
579640 379808
613321 569746
251564 353437
511631 655229
654716 436636
522773 348235
562608 403231
576582 850754
448467 460782
992799 210997
437332 978988
20435 701565
414501 352300
971083 18772
894842 407416
109994 629254
610534 621454
272086 464892
884382 248438
606372 818114
37693 69268
762516 772313
565514 925724
137854 537368
463122 149150
58321 808450
308630 8920
777637 263925
108784 554649
639273 430491
414432 209243
248050 429938
53510 405989
707384 345228
725004 200098
91218 851565
210373 188400
510392 680343
976303 970001
459662 554114
980215 212103
268939 44158
495087 614762
595112 631751
982552 754064
650401 518715
175769 210636
775036 722237
473400 421400
910781 158795
733987 605612
553361 54178
860418 936171
37617 675067
462012 73420
144407 376199
685588 482676
293984 406274
86485 894165
656526 838594
134972 306612
